{
  "content": [
    {
      "id":1,
      "name": "Allow sender",
      "description": "",
      "filter": {
        "id": 3,
        "name": "sss",
        "filter": {
          "userSearchFilter": {
            "fieldName": "contentFilter",
            "value": "aaa",
            "operator": {
              "value": "contains"
            },
            "displayedText": "aaa",
            "displayedFilterType": "Content",
            "originalCriteriaOperationId": "f255ad3d-dc57-4d93-a116-ce581b8df7d9",
            "objType": "SingleCriteria"
          }
        },
        "leftEntityDisplayTypeName": "folders_flat",
        "rightEntityDisplayTypeName": "files"
      },
      "actionTemplateDto": {
        "id":1,
        "name": "Allow"
      },
      "actionParams":[
        {
          "id":1,
          "actionTemplateParameter":
          {
            "id":3,
            "name":"mailing lists"
          },
          "values":[
           {
           "id":1,
           "name": "client recipients",
           "policyObjectType": {
             "id":8,
             "name": "recipients",
             "actionClass":"mailAddressList",
             "description": "",
             "parentId":null,
             "parents":[8]

           }


            }
          ]
        },
        {
          "id": 2,
          "actionTemplateParameter": {
            "id": 3,
            "name": "mailing lists"
          },
          "values": [
            {
              "id": 2,
              "name": "marketing111",
              "policyObjectType": {
                "id": 6,
                "name": "marketing",
                "description": "",
                "valueType": "mailAddressList",
                "parentId": 5,
                "parents": [
                  6,
                  5
                ]
              },
              "values": [
                {
                  "type": "mailAddress",
                  "values": [
                    "mail1@gmail.com",
                    "mail2@gmail.com"
                  ]
                }
              ]
            }
          ]
        }


      ]

    },
    {
      "id":2,
      "name": "Allow receiver",
      "description": "",
      "filter": {
        "id": 3,
        "name": "sss",
        "filter": {
          "userSearchFilter": {
            "fieldName": "contentFilter",
            "value": "aaa",
            "operator": {
              "value": "contains"
            },
            "displayedText": "aaa",
            "displayedFilterType": "Content",
            "originalCriteriaOperationId": "f255ad3d-dc57-4d93-a116-ce581b8df7d9",
            "objType": "SingleCriteria"
          }
        },
        "leftEntityDisplayTypeName": "folders_flat",
        "rightEntityDisplayTypeName": "files"
      },
      "actionTemplateDto": {
        "id":1,
        "name": "Allow"
      },
      "actionParams":[
        {
          "id": 1,
          "actionTemplateParameter": {
            "id": 3,
            "name": "mailing lists"
          },
          "values": [
            {
              "id": 1,
              "name": "client recipients",
              "policyObjectType": {
                "id": 8,
                "name": "recipients",
                "actionClass": "mailAddressList",
                "description": "",
                "parentId": null,
                "parents": [
                  8
                ]
              },
              "values": [
                {
                  "type": "mailAddress",
                  "values": [
                    "mail1@gmail.com",
                    "mail2@gmail.com"
                  ]
                }
              ]
            }
          ]
        }
      ]

    },
    {
      "id":3,
      "name": "Allow all",
      "description": "",
      "filter": {
        "id": 3,
        "name": "sss",
        "filter": {
          "userSearchFilter": {
            "fieldName": "contentFilter",
            "value": "aaa",
            "operator": {
              "value": "contains"
            },
            "displayedText": "aaa",
            "displayedFilterType": "Content",
            "originalCriteriaOperationId": "f255ad3d-dc57-4d93-a116-ce581b8df7d9",
            "objType": "SingleCriteria"
          }
        },
        "leftEntityDisplayTypeName": "folders_flat",
        "rightEntityDisplayTypeName": "files"
      },

      "actionTemplateDto": {
        "id":1,
        "name": "Allow"
      },
      "actionParams":[
        {"id":1,"name":"marketing333",
          "actionTemplateParameter":
          {
            "id":3,
            "name":"mailing lists"
          },
          "policyObjectType":
          {"id":6,"name":"marketing","description":"","valueType":"mailAddressList","parentId":5,"parents":[6,5]
          },
           "values":["mail1@gmail.com","mail2@gmail.com"]},
        {"id":1,"name":"management group111",
          "actionTemplateParameter":
          {
            "id":3,
            "name":"mails"
          },
          "policyObjectType":
          {"id":7,"name":"management group","description":"","actionClass":"mailAddressList","parentId":5,"parents":[7,5]
          },
          "values":["mail1@gmail.com","mail2@gmail.com"]
        }
      ]

    },
    {
      "id":4,
      "name": "Deny all",
      "description": "",
      "filter":null,
      "actionTemplateDto": {
        "id":2,
        "name": "Deny"
      },
      "actionParams":[
        {
          "id":1,
          "name":"marketing333",
          "actionTemplateParameter":
          {
            "id":3,
            "name":"mailing lists"
          },
          "policyObjectType":
          {"id":6,"name":"marketing","description":"","valueType":"mailAddressList","parentId":5,"parents":[6,5]
          },
           "values":["mail1@gmail.com","mail2@gmail.com"]

        },
         {"id":1,"name":"management group111",
           "actionTemplateParameter":
           {
             "id":3,
             "name":"mails"
           },
          "policyObjectType":
          {"id":7,"name":"management group","description":"","actionClass":"mailAddressList","parentId":5,"parents":[7,5]
          },
          "values":["mail1@gmail.com","mail2@gmail.com"]

        }
      ]

    }


  ],
  "totalElements": 4,
  "totalPages": 1,
  "last": false,
  "size": 30,
  "number": 0,
  "sort": null,
  "numberOfElements":4,
  "first": true
}
