{
  "content": [
    {
      "id":12,
      "name": "IT Admins",
      "actionClass":"userList",
      "description": "rewrwe ewrwerwer werwerewrewrwer",
    }


  ],
  "totalElements": 4,
  "totalPages": 1,
  "last": false,
  "size": 30,
  "number": 0,
  "sort": null,
  "numberOfElements":4,
  "first": true
}
