{
  "content": [
    {
      "id":1,
      "name": "wwwww sender",
      "description": "",
      "filter":null,
      "actionTemplateDto": {
        "id":2,
        "name": "Copy files"
      },
      "actionParams":[
      {
        "id":1,
        "actionTemplateParameter":
        {
          "id":3,
          "name":"sender"
        },
        "policyObjectType":
        {
          "id":6,
          "name": "marketing",
          "description": "",
          "valueType":"mailAddressList",
          "parentId":5,
          "parents":[6,5]

        },
          "values":[
         "dsdasdd@sdsdsd.com"
              ]
      },
        {
          "id":2,
          "actionTemplateParameter":
          {
            "id":4,
            "name":"receiver"
          },
          "policyObjectType":
          {
            "id":6,
            "name": "marketing",
            "description": "",
            "valueType":"mailAddressList",
            "parentId":5,
            "parents":[6,5]

          },
          "values":[
              "111111@11111.com",
              "111111@22222.com",
              "111111@3333.com"
                ]
          }
      ]


    },
    {
      "id":2,
      "name": "Aleeeeelow reciever",
      "description": "",
      "filter":null,
      "actionTemplateDto": {
            "id":1,
            "name":"ALLOW",
            "actionClass":["mediaLocation"]
       },
      "actionParams":[
        {
          "id":3,
          "actionTemplateParameter":
          {
            "id":3,
            "name":"sender"
          },
          "policyObjectType": {
            "id": 1,
            "name": "hr staff",
            "objectType": {
              "id": 15,
              "name": "Media Locations",
              "actionClass": "mediaLocation",
              "description": "",
              "parentId": null,
              "parents": [
                15
              ]
            },

            "isSystemObject": true
          },
          "values":[
            "dsdsd@gmail.com",
            "bbb@gmail.com"
                ]
        },
        {
          "id":4,
          "policyObjectType": {
            "id": 1,
            "name": "Folder",
            "objectType": {
              "id": 15,
              "name": "folder entity ",
              "actionClass": "entityItem",
              "description": ""
            },

            "isSystemObject": true
          },
          "actionTemplateParameter":
          {
            "id":4,
            "name":"receiver"
          },
           "values": [
                {
                  "id": 111,
                  "name": "Folder2",
                  "path": "External/BBB/Folder2"
                }
             ]
        }
      ]


    },
    {
      "id":3,
      "name": "vxcvxvxcvxc",
      "description": "",
      "filter":null,
      "actionTemplateDto": {
        "id":2,
        "name": "Copy files"
      },
      "actionParams":[
        {
          "id":1,
          "actionTemplateParameter":
          {
            "id":1,
            "name":"ALLOW",
            "params":[
              {
                "id":3,
                "name":"sender",
                "policyObjectTypes":[
                  {
                    "id":5,
                    "name": "senders",
                    "description": "",
                    "isAbstractType": true,
                    "actionClass":"mailAddressList",
                    "parentId":null,
                    "parents":[5]

                  },
                  {
                    "id":6,
                    "name": "marketing",
                    "description": "",
                    "valueType":"mailAddressList",
                    "parentId":5,
                    "parents":[6,5]

                  },
                  {
                    "id":7,
                    "name": "management group",
                    "description": "",
                    "actionClass":"mailAddressList",
                    "parentId":5,
                    "parents":[7,5]

                  }

                ]
              },
              {
                "id":4,
                "name":"receiver",
                "policyObjectTypes":[
                  {
                    "id":5,
                    "name": "senders",
                    "description": "",
                    "isAbstractType": true,
                    "actionClass":"mailAddressList",
                    "parentId":null,
                    "parents":[5]

                  },
                  {
                    "id":6,
                    "name": "marketing",
                    "description": "",
                    "valueType":"mailAddressList",
                    "parentId":5,
                    "parents":[6,5]

                  },
                  {
                    "id":7,
                    "name": "management group",
                    "description": "",
                    "actionClass":"mailAddressList",
                    "parentId":5,
                    "parents":[7,5]

                  }

                ]
              }
            ]

          },
          "policyObjectType":
          {
            "id":6,
            "name": "marketing",
            "description": "",
            "valueType":"mailAddressList",
            "parentId":5,
            "parents":[6,5]

          },
          "values":[
            "dsdasdd@sdsdsd.com"
          ]
        }
      ]


    }



  ],
  "totalElements": 4,
  "totalPages": 1,
  "last": false,
  "size": 30,
  "number": 0,
  "sort": null,
  "numberOfElements":4,
  "first": true
}
