<?xml version="1.0" encoding="utf-8"?>
<!-- Generator: Adobe Illustrator 17.1.0, SVG Export Plug-In . SVG Version: 6.00 Build 0)  -->
<!DOCTYPE svg PUBLIC "-//W3C//DTD SVG 1.1//EN" "http://www.w3.org/Graphics/SVG/1.1/DTD/svg11.dtd">
<svg version="1.1" id="Filled_Icons" xmlns="http://www.w3.org/2000/svg" xmlns:xlink="http://www.w3.org/1999/xlink" x="0px"
	 y="0px" width="24px" height="24px" viewBox="0 0 24 24" enable-background="new 0 0 24 24" xml:space="preserve">
<g>
	<path d="M17.5,10c1.264,0,2.454,0.318,3.5,0.872V4.5C21,4.225,20.776,4,20.5,4H19V2.5C19,2.225,18.776,2,18.5,2H6V0.5
		C6,0.225,5.776,0,5.5,0h-5C0.224,0,0,0.225,0,0.5V16c0,1.103,0.897,2,2,2h8.025C10.014,17.834,10,17.669,10,17.5
		C10,13.365,13.365,10,17.5,10z M3,4.5V16c0,0.551-0.449,1-1,1s-1-0.449-1-1V1h4v1.5C5,2.777,5.224,3,5.5,3H18v1H3.5
		C3.224,4,3,4.225,3,4.5z"/>
	<path d="M17.5,11c-3.585,0-6.5,2.916-6.5,6.5c0,3.584,2.915,6.5,6.5,6.5s6.5-2.916,6.5-6.5C24,13.916,21.084,11,17.5,11z
		 M21.142,16.201l-4.171,4.571l-3.097-3.097c-0.196-0.195-0.196-0.512,0-0.707c0.195-0.195,0.511-0.195,0.707,0l2.357,2.356
		l3.465-3.797c0.186-0.205,0.503-0.219,0.707-0.033C21.314,15.681,21.328,15.997,21.142,16.201z"/>
</g>
</svg>
